{
	"class" : {
		 },
	"instance" : {
		"compilerFlagsRelease" : "EstebanLorenzano 7/11/2013 11:37",
		"coreSources" : "EstebanLorenzano 2/5/2011 09:40",
		"executableName" : "IgorStasenko 3/18/2011 15:36",
		"interpreterClass" : "IgorStasenko 3/18/2011 02:47",
		"pluginsDir" : "MarianoMartinezPeck 4/23/2011 15:17",
		"prepareForGeneration" : "EstebanLorenzano 9/12/2011 09:51",
		"srcDir" : "MarianoMartinezPeck 4/12/2011 21:52",
		"versionExternalPlugins" : "IgorStasenko 8/8/2011 15:32" } }
